EESchema Schematic File Version 4
EELAYER 30 0
EELAYER END
$Descr A4 11693 8268
encoding utf-8
Sheet 1 1
Title "7 On"
Date "2020-11-03"
Rev "1"
Comp ""
Comment1 "3: Emitter"
Comment2 "2: Basis"
Comment3 "1: Collector"
Comment4 "Transistor Pinout"
$EndDescr
$Comp
L Device:R R12
U 1 1 5FA08DD4
P 4500 1300
F 0 "R12" H 4570 1346 50  0000 L CNN
F 1 "82 Ohm" H 4570 1255 50  0000 L CNN
F 2 "" V 4430 1300 50  0001 C CNN
F 3 "~" H 4500 1300 50  0001 C CNN
	1    4500 1300
	1    0    0    -1  
$EndComp
$Comp
L Device:LED D1
U 1 1 5FA0F16C
P 4500 1800
F 0 "D1" V 4539 1683 50  0000 R CNN
F 1 "LED 105 A GN" V 4448 1683 50  0000 R CNN
F 2 "" H 4500 1800 50  0001 C CNN
F 3 "~" H 4500 1800 50  0001 C CNN
	1    4500 1800
	0    -1   -1   0   
$EndComp
$Comp
L Device:R R11
U 1 1 5FA07486
P 3900 2350
F 0 "R11" V 4107 2350 50  0000 C CNN
F 1 "10 kOhm" V 4016 2350 50  0000 C CNN
F 2 "" V 3830 2350 50  0001 C CNN
F 3 "~" H 3900 2350 50  0001 C CNN
	1    3900 2350
	0    -1   -1   0   
$EndComp
$Comp
L Connector:TestPoint Pin7
U 1 1 5FA1D26F
P 3500 1900
F 0 "Pin7" H 3558 2018 50  0000 L CNN
F 1 "Arduino" H 3558 1927 50  0000 L CNN
F 2 "" H 3700 1900 50  0001 C CNN
F 3 "~" H 3700 1900 50  0001 C CNN
	1    3500 1900
	1    0    0    -1  
$EndComp
Wire Wire Line
	4500 1450 4500 1650
Wire Wire Line
	4500 1950 4500 2150
Wire Wire Line
	4500 900  4500 1150
Wire Wire Line
	4500 2550 4500 2800
$Comp
L Transistor_BJT:BC547 Q1
U 1 1 5FA0AA37
P 4400 2350
F 0 "Q1" H 4591 2396 50  0000 L CNN
F 1 "BC547C" H 4591 2305 50  0000 L CNN
F 2 "Package_TO_SOT_THT:TO-92_Inline" H 4600 2275 50  0001 L CIN
F 3 "" H 4400 2350 50  0001 L CNN
	1    4400 2350
	1    0    0    -1  
$EndComp
Wire Wire Line
	4050 2350 4200 2350
Wire Wire Line
	3500 1900 3500 2350
Wire Wire Line
	3500 2350 3750 2350
$Comp
L Device:R R22
U 1 1 5FA53A19
P 7000 1300
F 0 "R22" H 7070 1346 50  0000 L CNN
F 1 "82 Ohm" H 7070 1255 50  0000 L CNN
F 2 "" V 6930 1300 50  0001 C CNN
F 3 "~" H 7000 1300 50  0001 C CNN
	1    7000 1300
	1    0    0    -1  
$EndComp
$Comp
L Device:LED D2
U 1 1 5FA53A1F
P 7000 1800
F 0 "D2" V 7039 1683 50  0000 R CNN
F 1 "LED 105 A GN" V 6948 1683 50  0000 R CNN
F 2 "" H 7000 1800 50  0001 C CNN
F 3 "~" H 7000 1800 50  0001 C CNN
	1    7000 1800
	0    -1   -1   0   
$EndComp
$Comp
L Device:R R21
U 1 1 5FA53A25
P 6400 2350
F 0 "R21" V 6607 2350 50  0000 C CNN
F 1 "10 kOhm" V 6516 2350 50  0000 C CNN
F 2 "" V 6330 2350 50  0001 C CNN
F 3 "~" H 6400 2350 50  0001 C CNN
	1    6400 2350
	0    -1   -1   0   
$EndComp
$Comp
L Connector:TestPoint Pin8
U 1 1 5FA53A2B
P 6000 1900
F 0 "Pin8" H 6058 2018 50  0000 L CNN
F 1 "Arduino" H 6058 1927 50  0000 L CNN
F 2 "" H 6200 1900 50  0001 C CNN
F 3 "~" H 6200 1900 50  0001 C CNN
	1    6000 1900
	1    0    0    -1  
$EndComp
Wire Wire Line
	7000 1450 7000 1650
Wire Wire Line
	7000 1950 7000 2150
Wire Wire Line
	7000 900  7000 1150
Wire Wire Line
	7000 2550 7000 2800
$Comp
L Transistor_BJT:BC547 Q2
U 1 1 5FA53A35
P 6900 2350
F 0 "Q2" H 7091 2396 50  0000 L CNN
F 1 "BC547C" H 7091 2305 50  0000 L CNN
F 2 "Package_TO_SOT_THT:TO-92_Inline" H 7100 2275 50  0001 L CIN
F 3 "" H 6900 2350 50  0001 L CNN
	1    6900 2350
	1    0    0    -1  
$EndComp
Wire Wire Line
	6550 2350 6700 2350
Wire Wire Line
	6000 1900 6000 2350
Wire Wire Line
	6000 2350 6250 2350
$Comp
L Device:R R32
U 1 1 5FA560F5
P 9500 1300
F 0 "R32" H 9570 1346 50  0000 L CNN
F 1 "82 Ohm" H 9570 1255 50  0000 L CNN
F 2 "" V 9430 1300 50  0001 C CNN
F 3 "~" H 9500 1300 50  0001 C CNN
	1    9500 1300
	1    0    0    -1  
$EndComp
$Comp
L Device:LED D3
U 1 1 5FA560FB
P 9500 1800
F 0 "D3" V 9539 1683 50  0000 R CNN
F 1 "LED 105 A GN" V 9448 1683 50  0000 R CNN
F 2 "" H 9500 1800 50  0001 C CNN
F 3 "~" H 9500 1800 50  0001 C CNN
	1    9500 1800
	0    -1   -1   0   
$EndComp
$Comp
L Device:R R31
U 1 1 5FA56101
P 8900 2350
F 0 "R31" V 9107 2350 50  0000 C CNN
F 1 "10 kOhm" V 9016 2350 50  0000 C CNN
F 2 "" V 8830 2350 50  0001 C CNN
F 3 "~" H 8900 2350 50  0001 C CNN
	1    8900 2350
	0    -1   -1   0   
$EndComp
$Comp
L Connector:TestPoint Pin9
U 1 1 5FA56107
P 8500 1900
F 0 "Pin9" H 8558 2018 50  0000 L CNN
F 1 "Arduino" H 8558 1927 50  0000 L CNN
F 2 "" H 8700 1900 50  0001 C CNN
F 3 "~" H 8700 1900 50  0001 C CNN
	1    8500 1900
	1    0    0    -1  
$EndComp
Wire Wire Line
	9500 1450 9500 1650
Wire Wire Line
	9500 1950 9500 2150
Wire Wire Line
	9500 900  9500 1150
Wire Wire Line
	9500 2550 9500 2800
$Comp
L Transistor_BJT:BC547 Q3
U 1 1 5FA56111
P 9400 2350
F 0 "Q3" H 9591 2396 50  0000 L CNN
F 1 "BC547C" H 9591 2305 50  0000 L CNN
F 2 "Package_TO_SOT_THT:TO-92_Inline" H 9600 2275 50  0001 L CIN
F 3 "" H 9400 2350 50  0001 L CNN
	1    9400 2350
	1    0    0    -1  
$EndComp
Wire Wire Line
	9050 2350 9200 2350
Wire Wire Line
	8500 1900 8500 2350
Wire Wire Line
	8500 2350 8750 2350
$Comp
L Device:R R42
U 1 1 5FAA62A5
P 2000 3900
F 0 "R42" H 2070 3946 50  0000 L CNN
F 1 "82 Ohm" H 2070 3855 50  0000 L CNN
F 2 "" V 1930 3900 50  0001 C CNN
F 3 "~" H 2000 3900 50  0001 C CNN
	1    2000 3900
	1    0    0    -1  
$EndComp
$Comp
L Device:LED D4
U 1 1 5FAA62AB
P 2000 4400
F 0 "D4" V 2039 4283 50  0000 R CNN
F 1 "LED 105 A GN" V 1948 4283 50  0000 R CNN
F 2 "" H 2000 4400 50  0001 C CNN
F 3 "~" H 2000 4400 50  0001 C CNN
	1    2000 4400
	0    -1   -1   0   
$EndComp
$Comp
L Device:R R41
U 1 1 5FAA62B1
P 1400 4950
F 0 "R41" V 1607 4950 50  0000 C CNN
F 1 "10 kOhm" V 1516 4950 50  0000 C CNN
F 2 "" V 1330 4950 50  0001 C CNN
F 3 "~" H 1400 4950 50  0001 C CNN
	1    1400 4950
	0    -1   -1   0   
$EndComp
$Comp
L Connector:TestPoint Pin10
U 1 1 5FAA62B7
P 1000 4500
F 0 "Pin10" H 1058 4618 50  0000 L CNN
F 1 "Arduino" H 1058 4527 50  0000 L CNN
F 2 "" H 1200 4500 50  0001 C CNN
F 3 "~" H 1200 4500 50  0001 C CNN
	1    1000 4500
	1    0    0    -1  
$EndComp
Wire Wire Line
	2000 4050 2000 4250
Wire Wire Line
	2000 4550 2000 4750
Wire Wire Line
	2000 3500 2000 3750
Wire Wire Line
	2000 5150 2000 5400
$Comp
L Transistor_BJT:BC547 Q4
U 1 1 5FAA62C4
P 1900 4950
F 0 "Q4" H 2091 4996 50  0000 L CNN
F 1 "BC547C" H 2091 4905 50  0000 L CNN
F 2 "Package_TO_SOT_THT:TO-92_Inline" H 2100 4875 50  0001 L CIN
F 3 "" H 1900 4950 50  0001 L CNN
	1    1900 4950
	1    0    0    -1  
$EndComp
Wire Wire Line
	1550 4950 1700 4950
Wire Wire Line
	1000 4500 1000 4950
Wire Wire Line
	1000 4950 1250 4950
$Comp
L Device:R R52
U 1 1 5FAA62D2
P 4500 3900
F 0 "R52" H 4570 3946 50  0000 L CNN
F 1 "82 Ohm" H 4570 3855 50  0000 L CNN
F 2 "" V 4430 3900 50  0001 C CNN
F 3 "~" H 4500 3900 50  0001 C CNN
	1    4500 3900
	1    0    0    -1  
$EndComp
$Comp
L Device:LED D5
U 1 1 5FAA62D8
P 4500 4400
F 0 "D5" V 4539 4283 50  0000 R CNN
F 1 "LED 105 A GN" V 4448 4283 50  0000 R CNN
F 2 "" H 4500 4400 50  0001 C CNN
F 3 "~" H 4500 4400 50  0001 C CNN
	1    4500 4400
	0    -1   -1   0   
$EndComp
$Comp
L Device:R R51
U 1 1 5FAA62DE
P 3900 4950
F 0 "R51" V 4107 4950 50  0000 C CNN
F 1 "10 kOhm" V 4016 4950 50  0000 C CNN
F 2 "" V 3830 4950 50  0001 C CNN
F 3 "~" H 3900 4950 50  0001 C CNN
	1    3900 4950
	0    -1   -1   0   
$EndComp
$Comp
L Connector:TestPoint Pin11
U 1 1 5FAA62E4
P 3500 4500
F 0 "Pin11" H 3558 4618 50  0000 L CNN
F 1 "Arduino" H 3558 4527 50  0000 L CNN
F 2 "" H 3700 4500 50  0001 C CNN
F 3 "~" H 3700 4500 50  0001 C CNN
	1    3500 4500
	1    0    0    -1  
$EndComp
Wire Wire Line
	4500 4050 4500 4250
Wire Wire Line
	4500 4550 4500 4750
Wire Wire Line
	4500 3500 4500 3750
Wire Wire Line
	4500 5150 4500 5400
$Comp
L Transistor_BJT:BC547 Q5
U 1 1 5FAA62EE
P 4400 4950
F 0 "Q5" H 4591 4996 50  0000 L CNN
F 1 "BC547C" H 4591 4905 50  0000 L CNN
F 2 "Package_TO_SOT_THT:TO-92_Inline" H 4600 4875 50  0001 L CIN
F 3 "" H 4400 4950 50  0001 L CNN
	1    4400 4950
	1    0    0    -1  
$EndComp
Wire Wire Line
	4050 4950 4200 4950
Wire Wire Line
	3500 4500 3500 4950
Wire Wire Line
	3500 4950 3750 4950
$Comp
L Device:R R62
U 1 1 5FAA62F7
P 7000 3900
F 0 "R62" H 7070 3946 50  0000 L CNN
F 1 "82 Ohm" H 7070 3855 50  0000 L CNN
F 2 "" V 6930 3900 50  0001 C CNN
F 3 "~" H 7000 3900 50  0001 C CNN
	1    7000 3900
	1    0    0    -1  
$EndComp
$Comp
L Device:LED D6
U 1 1 5FAA62FD
P 7000 4400
F 0 "D6" V 7039 4283 50  0000 R CNN
F 1 "LED 105 A GN" V 6948 4283 50  0000 R CNN
F 2 "" H 7000 4400 50  0001 C CNN
F 3 "~" H 7000 4400 50  0001 C CNN
	1    7000 4400
	0    -1   -1   0   
$EndComp
$Comp
L Device:R R61
U 1 1 5FAA6303
P 6400 4950
F 0 "R61" V 6607 4950 50  0000 C CNN
F 1 "10 kOhm" V 6516 4950 50  0000 C CNN
F 2 "" V 6330 4950 50  0001 C CNN
F 3 "~" H 6400 4950 50  0001 C CNN
	1    6400 4950
	0    -1   -1   0   
$EndComp
$Comp
L Connector:TestPoint Pin12
U 1 1 5FAA6309
P 6000 4500
F 0 "Pin12" H 6058 4618 50  0000 L CNN
F 1 "Arduino" H 6058 4527 50  0000 L CNN
F 2 "" H 6200 4500 50  0001 C CNN
F 3 "~" H 6200 4500 50  0001 C CNN
	1    6000 4500
	1    0    0    -1  
$EndComp
Wire Wire Line
	7000 4050 7000 4250
Wire Wire Line
	7000 4550 7000 4750
Wire Wire Line
	7000 3500 7000 3750
Wire Wire Line
	7000 5150 7000 5400
$Comp
L Transistor_BJT:BC547 Q6
U 1 1 5FAA6313
P 6900 4950
F 0 "Q6" H 7091 4996 50  0000 L CNN
F 1 "BC547C" H 7091 4905 50  0000 L CNN
F 2 "Package_TO_SOT_THT:TO-92_Inline" H 7100 4875 50  0001 L CIN
F 3 "" H 6900 4950 50  0001 L CNN
	1    6900 4950
	1    0    0    -1  
$EndComp
Wire Wire Line
	6550 4950 6700 4950
Wire Wire Line
	6000 4500 6000 4950
Wire Wire Line
	6000 4950 6250 4950
$Comp
L Device:R R72
U 1 1 5FAA631C
P 9500 3900
F 0 "R72" H 9570 3946 50  0000 L CNN
F 1 "82 Ohm" H 9570 3855 50  0000 L CNN
F 2 "" V 9430 3900 50  0001 C CNN
F 3 "~" H 9500 3900 50  0001 C CNN
	1    9500 3900
	1    0    0    -1  
$EndComp
$Comp
L Device:LED D7
U 1 1 5FAA6322
P 9500 4400
F 0 "D7" V 9539 4283 50  0000 R CNN
F 1 "LED 105 A GN" V 9448 4283 50  0000 R CNN
F 2 "" H 9500 4400 50  0001 C CNN
F 3 "~" H 9500 4400 50  0001 C CNN
	1    9500 4400
	0    -1   -1   0   
$EndComp
$Comp
L Device:R R71
U 1 1 5FAA6328
P 8900 4950
F 0 "R71" V 9107 4950 50  0000 C CNN
F 1 "10 kOhm" V 9016 4950 50  0000 C CNN
F 2 "" V 8830 4950 50  0001 C CNN
F 3 "~" H 8900 4950 50  0001 C CNN
	1    8900 4950
	0    -1   -1   0   
$EndComp
$Comp
L Connector:TestPoint Pin13
U 1 1 5FAA632E
P 8500 4500
F 0 "Pin13" H 8558 4618 50  0000 L CNN
F 1 "Arduino" H 8558 4527 50  0000 L CNN
F 2 "" H 8700 4500 50  0001 C CNN
F 3 "~" H 8700 4500 50  0001 C CNN
	1    8500 4500
	1    0    0    -1  
$EndComp
Wire Wire Line
	9500 4050 9500 4250
Wire Wire Line
	9500 4550 9500 4750
Wire Wire Line
	9500 3500 9500 3750
Wire Wire Line
	9500 5150 9500 5400
$Comp
L Transistor_BJT:BC547 Q7
U 1 1 5FAA6338
P 9400 4950
F 0 "Q7" H 9591 4996 50  0000 L CNN
F 1 "BC547C" H 9591 4905 50  0000 L CNN
F 2 "Package_TO_SOT_THT:TO-92_Inline" H 9600 4875 50  0001 L CIN
F 3 "" H 9400 4950 50  0001 L CNN
	1    9400 4950
	1    0    0    -1  
$EndComp
Wire Wire Line
	9050 4950 9200 4950
Wire Wire Line
	8500 4500 8500 4950
Wire Wire Line
	8500 4950 8750 4950
$Comp
L Simulation_SPICE:VDC V1
U 1 1 5FA28DCA
P 1450 1800
F 0 "V1" H 1580 1846 50  0000 L CNN
F 1 "USB 5VDC" H 1580 1755 50  0000 L CNN
F 2 "" H 1450 1800 50  0001 C CNN
F 3 "~" H 1450 1800 50  0001 C CNN
F 4 "Y" H 1450 1800 50  0001 L CNN "Spice_Netlist_Enabled"
F 5 "V" H 1450 1800 50  0001 L CNN "Spice_Primitive"
F 6 "dc(1)" H 1580 1709 50  0001 L CNN "Spice_Model"
	1    1450 1800
	1    0    0    -1  
$EndComp
Wire Wire Line
	1450 900  1450 1600
Wire Wire Line
	1450 2800 1450 2000
$Comp
L Switch:SW_Push S0
U 1 1 5FA89E47
P 2000 6700
F 0 "S0" V 2046 6652 50  0000 R CNN
F 1 "Reset" V 1955 6652 50  0000 R CNN
F 2 "" H 2000 6900 50  0001 C CNN
F 3 "~" H 2000 6900 50  0001 C CNN
	1    2000 6700
	0    -1   -1   0   
$EndComp
$Comp
L Connector:TestPoint Pin19
U 1 1 5FA9A911
P 2000 6200
F 0 "Pin19" H 2058 6318 50  0000 L CNN
F 1 "Arduino" H 2058 6227 50  0000 L CNN
F 2 "" H 2200 6200 50  0001 C CNN
F 3 "~" H 2200 6200 50  0001 C CNN
	1    2000 6200
	1    0    0    -1  
$EndComp
Wire Wire Line
	2000 6200 2000 6500
$Comp
L Switch:SW_Push S1
U 1 1 5FAC0186
P 2600 6700
F 0 "S1" V 2600 6652 50  0000 R CNN
F 1 "SW_Push" V 2555 6652 50  0001 R CNN
F 2 "" H 2600 6900 50  0001 C CNN
F 3 "~" H 2600 6900 50  0001 C CNN
	1    2600 6700
	0    -1   -1   0   
$EndComp
$Comp
L Connector:TestPoint Pin0
U 1 1 5FAC018D
P 2600 6200
F 0 "Pin0" H 2658 6318 50  0000 L CNN
F 1 "Arduino" H 2658 6227 50  0000 L CNN
F 2 "" H 2800 6200 50  0001 C CNN
F 3 "~" H 2800 6200 50  0001 C CNN
	1    2600 6200
	1    0    0    -1  
$EndComp
Wire Wire Line
	2600 6500 2600 6200
$Comp
L Switch:SW_Push S2
U 1 1 5FAC4638
P 3200 6700
F 0 "S2" V 3200 6652 50  0000 R CNN
F 1 "SW_Push" V 3155 6652 50  0001 R CNN
F 2 "" H 3200 6900 50  0001 C CNN
F 3 "~" H 3200 6900 50  0001 C CNN
	1    3200 6700
	0    -1   -1   0   
$EndComp
$Comp
L Connector:TestPoint Pin1
U 1 1 5FAC463F
P 3200 6200
F 0 "Pin1" H 3258 6318 50  0000 L CNN
F 1 "Arduino" H 3258 6227 50  0000 L CNN
F 2 "" H 3400 6200 50  0001 C CNN
F 3 "~" H 3400 6200 50  0001 C CNN
	1    3200 6200
	1    0    0    -1  
$EndComp
Wire Wire Line
	3200 6200 3200 6500
$Comp
L Switch:SW_Push S3
U 1 1 5FAC4646
P 3800 6700
F 0 "S3" V 3800 6652 50  0000 R CNN
F 1 "SW_Push" V 3755 6652 50  0001 R CNN
F 2 "" H 3800 6900 50  0001 C CNN
F 3 "~" H 3800 6900 50  0001 C CNN
	1    3800 6700
	0    -1   -1   0   
$EndComp
$Comp
L Connector:TestPoint Pin2
U 1 1 5FAC464D
P 3800 6200
F 0 "Pin2" H 3858 6318 50  0000 L CNN
F 1 "Arduino" H 3858 6227 50  0000 L CNN
F 2 "" H 4000 6200 50  0001 C CNN
F 3 "~" H 4000 6200 50  0001 C CNN
	1    3800 6200
	1    0    0    -1  
$EndComp
Wire Wire Line
	3800 6500 3800 6200
$Comp
L Switch:SW_Push S4
U 1 1 5FAD4838
P 4400 6700
F 0 "S4" V 4400 6652 50  0000 R CNN
F 1 "SW_Push" V 4355 6652 50  0001 R CNN
F 2 "" H 4400 6900 50  0001 C CNN
F 3 "~" H 4400 6900 50  0001 C CNN
	1    4400 6700
	0    -1   -1   0   
$EndComp
$Comp
L Connector:TestPoint Pin3
U 1 1 5FAD483F
P 4400 6200
F 0 "Pin3" H 4458 6318 50  0000 L CNN
F 1 "Arduino" H 4458 6227 50  0000 L CNN
F 2 "" H 4600 6200 50  0001 C CNN
F 3 "~" H 4600 6200 50  0001 C CNN
	1    4400 6200
	1    0    0    -1  
$EndComp
Wire Wire Line
	4400 6200 4400 6500
$Comp
L Switch:SW_Push S5
U 1 1 5FAD4846
P 5000 6700
F 0 "S5" V 5000 6652 50  0000 R CNN
F 1 "SW_Push" V 4955 6652 50  0001 R CNN
F 2 "" H 5000 6900 50  0001 C CNN
F 3 "~" H 5000 6900 50  0001 C CNN
	1    5000 6700
	0    -1   -1   0   
$EndComp
$Comp
L Connector:TestPoint Pin4
U 1 1 5FAD484D
P 5000 6200
F 0 "Pin4" H 5058 6318 50  0000 L CNN
F 1 "Arduino" H 5058 6227 50  0000 L CNN
F 2 "" H 5200 6200 50  0001 C CNN
F 3 "~" H 5200 6200 50  0001 C CNN
	1    5000 6200
	1    0    0    -1  
$EndComp
Wire Wire Line
	5000 6500 5000 6200
$Comp
L Switch:SW_Push S6
U 1 1 5FAD4854
P 5600 6700
F 0 "S6" V 5600 6652 50  0000 R CNN
F 1 "SW_Push" V 5555 6652 50  0001 R CNN
F 2 "" H 5600 6900 50  0001 C CNN
F 3 "~" H 5600 6900 50  0001 C CNN
	1    5600 6700
	0    -1   -1   0   
$EndComp
$Comp
L Connector:TestPoint Pin5
U 1 1 5FAD485B
P 5600 6200
F 0 "Pin5" H 5658 6318 50  0000 L CNN
F 1 "Arduino" H 5658 6227 50  0000 L CNN
F 2 "" H 5800 6200 50  0001 C CNN
F 3 "~" H 5800 6200 50  0001 C CNN
	1    5600 6200
	1    0    0    -1  
$EndComp
Wire Wire Line
	5600 6200 5600 6500
$Comp
L Switch:SW_Push S7
U 1 1 5FAD4862
P 6200 6700
F 0 "S7" V 6200 6652 50  0000 R CNN
F 1 "SW_Push" V 6155 6652 50  0001 R CNN
F 2 "" H 6200 6900 50  0001 C CNN
F 3 "~" H 6200 6900 50  0001 C CNN
	1    6200 6700
	0    -1   -1   0   
$EndComp
$Comp
L Connector:TestPoint Pin6
U 1 1 5FAD4869
P 6200 6200
F 0 "Pin6" H 6258 6318 50  0000 L CNN
F 1 "Arduino" H 6258 6227 50  0000 L CNN
F 2 "" H 6400 6200 50  0001 C CNN
F 3 "~" H 6400 6200 50  0001 C CNN
	1    6200 6200
	1    0    0    -1  
$EndComp
Wire Wire Line
	6200 6500 6200 6200
Wire Wire Line
	2000 7250 2600 7250
Connection ~ 2600 7250
Wire Wire Line
	2600 7250 3200 7250
Connection ~ 3200 7250
Wire Wire Line
	3200 7250 3800 7250
Connection ~ 3800 7250
Wire Wire Line
	3800 7250 4400 7250
Connection ~ 4400 7250
Connection ~ 5000 7250
Wire Wire Line
	4400 7250 5000 7250
Wire Wire Line
	5000 7250 5600 7250
Connection ~ 5600 7250
Wire Wire Line
	5600 7250 6200 7250
Wire Wire Line
	6200 6900 6200 7250
Wire Wire Line
	5600 6900 5600 7250
Wire Wire Line
	5000 6900 5000 7250
Wire Wire Line
	4400 6900 4400 7250
Wire Wire Line
	3800 6900 3800 7250
Wire Wire Line
	3200 6900 3200 7250
Wire Wire Line
	2000 6900 2000 7250
Wire Wire Line
	2600 6900 2600 7250
Text GLabel 10300 900  2    50   Input ~ 0
+5V
Text GLabel 10300 2800 2    50   Input ~ 0
0V
Text GLabel 10300 3500 2    50   Input ~ 0
+5V
Text GLabel 10300 5400 2    50   Input ~ 0
0V
Text GLabel 1050 3500 0    50   Input ~ 0
+5V
Text GLabel 1050 5400 0    50   Input ~ 0
0V
Text GLabel 1050 7250 0    50   Input ~ 0
0V
Wire Wire Line
	2000 7250 1050 7250
Connection ~ 2000 7250
Wire Wire Line
	2000 5400 1050 5400
Wire Wire Line
	2000 3500 1050 3500
Wire Wire Line
	4500 900  7000 900 
Connection ~ 4500 900 
Connection ~ 7000 900 
Wire Wire Line
	7000 900  9500 900 
Connection ~ 9500 900 
Wire Wire Line
	9500 900  10300 900 
Wire Wire Line
	4500 2800 7000 2800
Connection ~ 4500 2800
Connection ~ 7000 2800
Wire Wire Line
	7000 2800 9500 2800
Connection ~ 9500 2800
Wire Wire Line
	9500 2800 10300 2800
Wire Wire Line
	2000 3500 4500 3500
Connection ~ 2000 3500
Connection ~ 4500 3500
Wire Wire Line
	4500 3500 7000 3500
Connection ~ 7000 3500
Wire Wire Line
	7000 3500 9500 3500
Connection ~ 9500 3500
Wire Wire Line
	9500 3500 10300 3500
Wire Wire Line
	10300 5400 9500 5400
Connection ~ 2000 5400
Connection ~ 4500 5400
Wire Wire Line
	4500 5400 2000 5400
Connection ~ 7000 5400
Wire Wire Line
	7000 5400 4500 5400
Connection ~ 9500 5400
Wire Wire Line
	9500 5400 7000 5400
$Comp
L Connector:TestPoint PinGnd
U 1 1 5FB4BE7E
P 2550 2050
F 0 "PinGnd" H 2608 2168 50  0000 L CNN
F 1 "Arduino" H 2608 2077 50  0000 L CNN
F 2 "" H 2750 2050 50  0001 C CNN
F 3 "~" H 2750 2050 50  0001 C CNN
	1    2550 2050
	1    0    0    -1  
$EndComp
$Comp
L Connector:TestPoint Pin5V
U 1 1 5FB5BF58
P 2550 1550
F 0 "Pin5V" H 2608 1668 50  0000 L CNN
F 1 "Arduino" H 2608 1577 50  0000 L CNN
F 2 "" H 2750 1550 50  0001 C CNN
F 3 "~" H 2750 1550 50  0001 C CNN
	1    2550 1550
	1    0    0    1   
$EndComp
Wire Wire Line
	2550 1550 2550 900 
Wire Wire Line
	2550 2050 2550 2800
Connection ~ 2550 900 
Connection ~ 2550 2800
Wire Wire Line
	2550 900  4500 900 
Wire Wire Line
	2550 2800 4500 2800
Wire Wire Line
	1450 900  2550 900 
Wire Wire Line
	1450 2800 2550 2800
$EndSCHEMATC
